simulation/qsim/pulse_Td.msim.vcd
$comment
	File created using the following command:
		vcd file pulse_Td.msim.vcd -direction
$end
$date
	Thu Aug 28 19:16:50 2025
$end
$version
	ModelSim Version 2020.1
$end
$timescale
	1ps
$end

$scope module pulse_td_vhd_vec_tst $end
$var wire 1 ! clk $end
$var wire 1 " pulse_D_Td $end
$var wire 1 # pulse_SW_Td $end
$var wire 1 $ rst $end

$scope module i1 $end
$var wire 1 % gnd $end
$var wire 1 & vcc $end
$var wire 1 ' unknown $end
$var wire 1 ( devoe $end
$var wire 1 ) devclrn $end
$var wire 1 * devpor $end
$var wire 1 + ww_devoe $end
$var wire 1 , ww_devclrn $end
$var wire 1 - ww_devpor $end
$var wire 1 . ww_clk $end
$var wire 1 / ww_rst $end
$var wire 1 0 ww_pulse_SW_Td $end
$var wire 1 1 ww_pulse_D_Td $end
$var wire 1 2 \U1|shift_rtl_0|auto_generated|altsyncram2|ram_block5a0_PORTADATAIN_bus\ [35] $end
$var wire 1 3 \U1|shift_rtl_0|auto_generated|altsyncram2|ram_block5a0_PORTADATAIN_bus\ [34] $end
$var wire 1 4 \U1|shift_rtl_0|auto_generated|altsyncram2|ram_block5a0_PORTADATAIN_bus\ [33] $end
$var wire 1 5 \U1|shift_rtl_0|auto_generated|altsyncram2|ram_block5a0_PORTADATAIN_bus\ [32] $end
$var wire 1 6 \U1|shift_rtl_0|auto_generated|altsyncram2|ram_block5a0_PORTADATAIN_bus\ [31] $end
$var wire 1 7 \U1|shift_rtl_0|auto_generated|altsyncram2|ram_block5a0_PORTADATAIN_bus\ [30] $end
$var wire 1 8 \U1|shift_rtl_0|auto_generated|altsyncram2|ram_block5a0_PORTADATAIN_bus\ [29] $end
$var wire 1 9 \U1|shift_rtl_0|auto_generated|altsyncram2|ram_block5a0_PORTADATAIN_bus\ [28] $end
$var wire 1 : \U1|shift_rtl_0|auto_generated|altsyncram2|ram_block5a0_PORTADATAIN_bus\ [27] $end
$var wire 1 ; \U1|shift_rtl_0|auto_generated|altsyncram2|ram_block5a0_PORTADATAIN_bus\ [26] $end
$var wire 1 < \U1|shift_rtl_0|auto_generated|altsyncram2|ram_block5a0_PORTADATAIN_bus\ [25] $end
$var wire 1 = \U1|shift_rtl_0|auto_generated|altsyncram2|ram_block5a0_PORTADATAIN_bus\ [24] $end
$var wire 1 > \U1|shift_rtl_0|auto_generated|altsyncram2|ram_block5a0_PORTADATAIN_bus\ [23] $end
$var wire 1 ? \U1|shift_rtl_0|auto_generated|altsyncram2|ram_block5a0_PORTADATAIN_bus\ [22] $end
$var wire 1 @ \U1|shift_rtl_0|auto_generated|altsyncram2|ram_block5a0_PORTADATAIN_bus\ [21] $end
$var wire 1 A \U1|shift_rtl_0|auto_generated|altsyncram2|ram_block5a0_PORTADATAIN_bus\ [20] $end
$var wire 1 B \U1|shift_rtl_0|auto_generated|altsyncram2|ram_block5a0_PORTADATAIN_bus\ [19] $end
$var wire 1 C \U1|shift_rtl_0|auto_generated|altsyncram2|ram_block5a0_PORTADATAIN_bus\ [18] $end
$var wire 1 D \U1|shift_rtl_0|auto_generated|altsyncram2|ram_block5a0_PORTADATAIN_bus\ [17] $end
$var wire 1 E \U1|shift_rtl_0|auto_generated|altsyncram2|ram_block5a0_PORTADATAIN_bus\ [16] $end
$var wire 1 F \U1|shift_rtl_0|auto_generated|altsyncram2|ram_block5a0_PORTADATAIN_bus\ [15] $end
$var wire 1 G \U1|shift_rtl_0|auto_generated|altsyncram2|ram_block5a0_PORTADATAIN_bus\ [14] $end
$var wire 1 H \U1|shift_rtl_0|auto_generated|altsyncram2|ram_block5a0_PORTADATAIN_bus\ [13] $end
$var wire 1 I \U1|shift_rtl_0|auto_generated|altsyncram2|ram_block5a0_PORTADATAIN_bus\ [12] $end
$var wire 1 J \U1|shift_rtl_0|auto_generated|altsyncram2|ram_block5a0_PORTADATAIN_bus\ [11] $end
$var wire 1 K \U1|shift_rtl_0|auto_generated|altsyncram2|ram_block5a0_PORTADATAIN_bus\ [10] $end
$var wire 1 L \U1|shift_rtl_0|auto_generated|altsyncram2|ram_block5a0_PORTADATAIN_bus\ [9] $end
$var wire 1 M \U1|shift_rtl_0|auto_generated|altsyncram2|ram_block5a0_PORTADATAIN_bus\ [8] $end
$var wire 1 N \U1|shift_rtl_0|auto_generated|altsyncram2|ram_block5a0_PORTADATAIN_bus\ [7] $end
$var wire 1 O \U1|shift_rtl_0|auto_generated|altsyncram2|ram_block5a0_PORTADATAIN_bus\ [6] $end
$var wire 1 P \U1|shift_rtl_0|auto_generated|altsyncram2|ram_block5a0_PORTADATAIN_bus\ [5] $end
$var wire 1 Q \U1|shift_rtl_0|auto_generated|altsyncram2|ram_block5a0_PORTADATAIN_bus\ [4] $end
$var wire 1 R \U1|shift_rtl_0|auto_generated|altsyncram2|ram_block5a0_PORTADATAIN_bus\ [3] $end
$var wire 1 S \U1|shift_rtl_0|auto_generated|altsyncram2|ram_block5a0_PORTADATAIN_bus\ [2] $end
$var wire 1 T \U1|shift_rtl_0|auto_generated|altsyncram2|ram_block5a0_PORTADATAIN_bus\ [1] $end
$var wire 1 U \U1|shift_rtl_0|auto_generated|altsyncram2|ram_block5a0_PORTADATAIN_bus\ [0] $end
$var wire 1 V \U1|shift_rtl_0|auto_generated|altsyncram2|ram_block5a0_PORTAADDR_bus\ [6] $end
$var wire 1 W \U1|shift_rtl_0|auto_generated|altsyncram2|ram_block5a0_PORTAADDR_bus\ [5] $end
$var wire 1 X \U1|shift_rtl_0|auto_generated|altsyncram2|ram_block5a0_PORTAADDR_bus\ [4] $end
$var wire 1 Y \U1|shift_rtl_0|auto_generated|altsyncram2|ram_block5a0_PORTAADDR_bus\ [3] $end
$var wire 1 Z \U1|shift_rtl_0|auto_generated|altsyncram2|ram_block5a0_PORTAADDR_bus\ [2] $end
$var wire 1 [ \U1|shift_rtl_0|auto_generated|altsyncram2|ram_block5a0_PORTAADDR_bus\ [1] $end
$var wire 1 \ \U1|shift_rtl_0|auto_generated|altsyncram2|ram_block5a0_PORTAADDR_bus\ [0] $end
$var wire 1 ] \U1|shift_rtl_0|auto_generated|altsyncram2|ram_block5a0_PORTBADDR_bus\ [6] $end
$var wire 1 ^ \U1|shift_rtl_0|auto_generated|altsyncram2|ram_block5a0_PORTBADDR_bus\ [5] $end
$var wire 1 _ \U1|shift_rtl_0|auto_generated|altsyncram2|ram_block5a0_PORTBADDR_bus\ [4] $end
$var wire 1 ` \U1|shift_rtl_0|auto_generated|altsyncram2|ram_block5a0_PORTBADDR_bus\ [3] $end
$var wire 1 a \U1|shift_rtl_0|auto_generated|altsyncram2|ram_block5a0_PORTBADDR_bus\ [2] $end
$var wire 1 b \U1|shift_rtl_0|auto_generated|altsyncram2|ram_block5a0_PORTBADDR_bus\ [1] $end
$var wire 1 c \U1|shift_rtl_0|auto_generated|altsyncram2|ram_block5a0_PORTBADDR_bus\ [0] $end
$var wire 1 d \U1|shift_rtl_0|auto_generated|altsyncram2|ram_block5a0_PORTBDATAOUT_bus\ [35] $end
$var wire 1 e \U1|shift_rtl_0|auto_generated|altsyncram2|ram_block5a0_PORTBDATAOUT_bus\ [34] $end
$var wire 1 f \U1|shift_rtl_0|auto_generated|altsyncram2|ram_block5a0_PORTBDATAOUT_bus\ [33] $end
$var wire 1 g \U1|shift_rtl_0|auto_generated|altsyncram2|ram_block5a0_PORTBDATAOUT_bus\ [32] $end
$var wire 1 h \U1|shift_rtl_0|auto_generated|altsyncram2|ram_block5a0_PORTBDATAOUT_bus\ [31] $end
$var wire 1 i \U1|shift_rtl_0|auto_generated|altsyncram2|ram_block5a0_PORTBDATAOUT_bus\ [30] $end
$var wire 1 j \U1|shift_rtl_0|auto_generated|altsyncram2|ram_block5a0_PORTBDATAOUT_bus\ [29] $end
$var wire 1 k \U1|shift_rtl_0|auto_generated|altsyncram2|ram_block5a0_PORTBDATAOUT_bus\ [28] $end
$var wire 1 l \U1|shift_rtl_0|auto_generated|altsyncram2|ram_block5a0_PORTBDATAOUT_bus\ [27] $end
$var wire 1 m \U1|shift_rtl_0|auto_generated|altsyncram2|ram_block5a0_PORTBDATAOUT_bus\ [26] $end
$var wire 1 n \U1|shift_rtl_0|auto_generated|altsyncram2|ram_block5a0_PORTBDATAOUT_bus\ [25] $end
$var wire 1 o \U1|shift_rtl_0|auto_generated|altsyncram2|ram_block5a0_PORTBDATAOUT_bus\ [24] $end
$var wire 1 p \U1|shift_rtl_0|auto_generated|altsyncram2|ram_block5a0_PORTBDATAOUT_bus\ [23] $end
$var wire 1 q \U1|shift_rtl_0|auto_generated|altsyncram2|ram_block5a0_PORTBDATAOUT_bus\ [22] $end
$var wire 1 r \U1|shift_rtl_0|auto_generated|altsyncram2|ram_block5a0_PORTBDATAOUT_bus\ [21] $end
$var wire 1 s \U1|shift_rtl_0|auto_generated|altsyncram2|ram_block5a0_PORTBDATAOUT_bus\ [20] $end
$var wire 1 t \U1|shift_rtl_0|auto_generated|altsyncram2|ram_block5a0_PORTBDATAOUT_bus\ [19] $end
$var wire 1 u \U1|shift_rtl_0|auto_generated|altsyncram2|ram_block5a0_PORTBDATAOUT_bus\ [18] $end
$var wire 1 v \U1|shift_rtl_0|auto_generated|altsyncram2|ram_block5a0_PORTBDATAOUT_bus\ [17] $end
$var wire 1 w \U1|shift_rtl_0|auto_generated|altsyncram2|ram_block5a0_PORTBDATAOUT_bus\ [16] $end
$var wire 1 x \U1|shift_rtl_0|auto_generated|altsyncram2|ram_block5a0_PORTBDATAOUT_bus\ [15] $end
$var wire 1 y \U1|shift_rtl_0|auto_generated|altsyncram2|ram_block5a0_PORTBDATAOUT_bus\ [14] $end
$var wire 1 z \U1|shift_rtl_0|auto_generated|altsyncram2|ram_block5a0_PORTBDATAOUT_bus\ [13] $end
$var wire 1 { \U1|shift_rtl_0|auto_generated|altsyncram2|ram_block5a0_PORTBDATAOUT_bus\ [12] $end
$var wire 1 | \U1|shift_rtl_0|auto_generated|altsyncram2|ram_block5a0_PORTBDATAOUT_bus\ [11] $end
$var wire 1 } \U1|shift_rtl_0|auto_generated|altsyncram2|ram_block5a0_PORTBDATAOUT_bus\ [10] $end
$var wire 1 ~ \U1|shift_rtl_0|auto_generated|altsyncram2|ram_block5a0_PORTBDATAOUT_bus\ [9] $end
$var wire 1 !! \U1|shift_rtl_0|auto_generated|altsyncram2|ram_block5a0_PORTBDATAOUT_bus\ [8] $end
$var wire 1 "! \U1|shift_rtl_0|auto_generated|altsyncram2|ram_block5a0_PORTBDATAOUT_bus\ [7] $end
$var wire 1 #! \U1|shift_rtl_0|auto_generated|altsyncram2|ram_block5a0_PORTBDATAOUT_bus\ [6] $end
$var wire 1 $! \U1|shift_rtl_0|auto_generated|altsyncram2|ram_block5a0_PORTBDATAOUT_bus\ [5] $end
$var wire 1 %! \U1|shift_rtl_0|auto_generated|altsyncram2|ram_block5a0_PORTBDATAOUT_bus\ [4] $end
$var wire 1 &! \U1|shift_rtl_0|auto_generated|altsyncram2|ram_block5a0_PORTBDATAOUT_bus\ [3] $end
$var wire 1 '! \U1|shift_rtl_0|auto_generated|altsyncram2|ram_block5a0_PORTBDATAOUT_bus\ [2] $end
$var wire 1 (! \U1|shift_rtl_0|auto_generated|altsyncram2|ram_block5a0_PORTBDATAOUT_bus\ [1] $end
$var wire 1 )! \U1|shift_rtl_0|auto_generated|altsyncram2|ram_block5a0_PORTBDATAOUT_bus\ [0] $end
$var wire 1 *! \clk~inputclkctrl_INCLK_bus\ [3] $end
$var wire 1 +! \clk~inputclkctrl_INCLK_bus\ [2] $end
$var wire 1 ,! \clk~inputclkctrl_INCLK_bus\ [1] $end
$var wire 1 -! \clk~inputclkctrl_INCLK_bus\ [0] $end
$var wire 1 .! \rst~inputclkctrl_INCLK_bus\ [3] $end
$var wire 1 /! \rst~inputclkctrl_INCLK_bus\ [2] $end
$var wire 1 0! \rst~inputclkctrl_INCLK_bus\ [1] $end
$var wire 1 1! \rst~inputclkctrl_INCLK_bus\ [0] $end
$var wire 1 2! \pulse_SW_Td~output_o\ $end
$var wire 1 3! \pulse_D_Td~output_o\ $end
$var wire 1 4! \clk~input_o\ $end
$var wire 1 5! \clk~inputclkctrl_outclk\ $end
$var wire 1 6! \U1|shift_rtl_0|auto_generated|cntr3|counter_comb_bita0~combout\ $end
$var wire 1 7! \rst~input_o\ $end
$var wire 1 8! \rst~inputclkctrl_outclk\ $end
$var wire 1 9! \U1|shift_rtl_0|auto_generated|cntr3|counter_comb_bita0~COUT\ $end
$var wire 1 :! \U1|shift_rtl_0|auto_generated|cntr3|counter_comb_bita1~combout\ $end
$var wire 1 ;! \U1|shift_rtl_0|auto_generated|cntr3|counter_comb_bita1~COUT\ $end
$var wire 1 <! \U1|shift_rtl_0|auto_generated|cntr3|counter_comb_bita2~combout\ $end
$var wire 1 =! \U1|shift_rtl_0|auto_generated|cntr3|counter_comb_bita2~COUT\ $end
$var wire 1 >! \U1|shift_rtl_0|auto_generated|cntr3|counter_comb_bita3~combout\ $end
$var wire 1 ?! \U1|shift_rtl_0|auto_generated|cntr3|counter_comb_bita3~COUT\ $end
$var wire 1 @! \U1|shift_rtl_0|auto_generated|cntr3|counter_comb_bita4~combout\ $end
$var wire 1 A! \U1|shift_rtl_0|auto_generated|cntr3|counter_comb_bita4~COUT\ $end
$var wire 1 B! \U1|shift_rtl_0|auto_generated|cntr3|counter_comb_bita5~combout\ $end
$var wire 1 C! \U1|shift_rtl_0|auto_generated|cntr3|counter_comb_bita5~COUT\ $end
$var wire 1 D! \U1|shift_rtl_0|auto_generated|cntr3|counter_comb_bita6~combout\ $end
$var wire 1 E! \U1|shift_rtl_0|auto_generated|cntr3|counter_comb_bita6~COUT\ $end
$var wire 1 F! \U1|shift_rtl_0|auto_generated|cntr3|counter_comb_bita6~0_combout\ $end
$var wire 1 G! \U1|shift_rtl_0|auto_generated|dffe4~feeder_combout\ $end
$var wire 1 H! \U1|shift_rtl_0|auto_generated|dffe4~q\ $end
$var wire 1 I! \U0|Add0~0_combout\ $end
$var wire 1 J! \U0|Add0~1\ $end
$var wire 1 K! \U0|Add0~2_combout\ $end
$var wire 1 L! \U0|Add0~3\ $end
$var wire 1 M! \U0|Add0~4_combout\ $end
$var wire 1 N! \U0|Add0~7\ $end
$var wire 1 O! \U0|Add0~8_combout\ $end
$var wire 1 P! \U0|Add0~9\ $end
$var wire 1 Q! \U0|Add0~10_combout\ $end
$var wire 1 R! \U0|Add0~11\ $end
$var wire 1 S! \U0|Add0~12_combout\ $end
$var wire 1 T! \U0|cnt_Toff~4_combout\ $end
$var wire 1 U! \U0|Equal1~3_combout\ $end
$var wire 1 V! \U0|cnt_Toff~1_combout\ $end
$var wire 1 W! \U0|Add0~5\ $end
$var wire 1 X! \U0|Add0~6_combout\ $end
$var wire 1 Y! \U0|Add0~13\ $end
$var wire 1 Z! \U0|Add0~14_combout\ $end
$var wire 1 [! \U0|cnt_Toff~0_combout\ $end
$var wire 1 \! \U0|Equal1~0_combout\ $end
$var wire 1 ]! \U0|Equal1~1_combout\ $end
$var wire 1 ^! \U0|Add0~15\ $end
$var wire 1 _! \U0|Add0~16_combout\ $end
$var wire 1 `! \U0|cnt_Toff~3_combout\ $end
$var wire 1 a! \U0|Add0~17\ $end
$var wire 1 b! \U0|Add0~18_combout\ $end
$var wire 1 c! \U0|Add0~19\ $end
$var wire 1 d! \U0|Add0~20_combout\ $end
$var wire 1 e! \U0|Add0~21\ $end
$var wire 1 f! \U0|Add0~22_combout\ $end
$var wire 1 g! \U0|cnt_Toff~2_combout\ $end
$var wire 1 h! \U0|Equal1~2_combout\ $end
$var wire 1 i! \U0|pul~0_combout\ $end
$var wire 1 j! \U0|pul~1_combout\ $end
$var wire 1 k! \U0|pul~2_combout\ $end
$var wire 1 l! \U0|pul~q\ $end
$var wire 1 m! \U1|shift_rtl_0|auto_generated|cntr1|counter_comb_bita0~COUT\ $end
$var wire 1 n! \U1|shift_rtl_0|auto_generated|cntr1|counter_comb_bita1~combout\ $end
$var wire 1 o! \U1|shift_rtl_0|auto_generated|cntr1|counter_reg_bit[1]~1_combout\ $end
$var wire 1 p! \U1|shift_rtl_0|auto_generated|cntr1|counter_comb_bita1~COUT\ $end
$var wire 1 q! \U1|shift_rtl_0|auto_generated|cntr1|counter_comb_bita2~COUT\ $end
$var wire 1 r! \U1|shift_rtl_0|auto_generated|cntr1|counter_comb_bita3~COUT\ $end
$var wire 1 s! \U1|shift_rtl_0|auto_generated|cntr1|counter_comb_bita4~combout\ $end
$var wire 1 t! \U1|shift_rtl_0|auto_generated|cntr1|counter_reg_bit[4]~4_combout\ $end
$var wire 1 u! \U1|shift_rtl_0|auto_generated|cntr1|counter_comb_bita4~COUT\ $end
$var wire 1 v! \U1|shift_rtl_0|auto_generated|cntr1|counter_comb_bita5~combout\ $end
$var wire 1 w! \U1|shift_rtl_0|auto_generated|cntr1|counter_reg_bit[5]~5_combout\ $end
$var wire 1 x! \U1|shift_rtl_0|auto_generated|cntr1|counter_comb_bita5~COUT\ $end
$var wire 1 y! \U1|shift_rtl_0|auto_generated|cntr1|counter_comb_bita6~combout\ $end
$var wire 1 z! \U1|shift_rtl_0|auto_generated|cntr1|counter_reg_bit[6]~6_combout\ $end
$var wire 1 {! \U1|shift_rtl_0|auto_generated|cntr1|counter_comb_bita6~COUT\ $end
$var wire 1 |! \U1|shift_rtl_0|auto_generated|cntr1|counter_comb_bita6~0_combout\ $end
$var wire 1 }! \U1|shift_rtl_0|auto_generated|cntr1|counter_comb_bita2~combout\ $end
$var wire 1 ~! \U1|shift_rtl_0|auto_generated|cntr1|counter_reg_bit[2]~2_combout\ $end
$var wire 1 !" \U1|shift_rtl_0|auto_generated|cntr1|cmpr6|aneb_result_wire[0]~1_combout\ $end
$var wire 1 "" \U1|shift_rtl_0|auto_generated|cntr1|counter_comb_bita3~combout\ $end
$var wire 1 #" \U1|shift_rtl_0|auto_generated|cntr1|counter_reg_bit[3]~3_combout\ $end
$var wire 1 $" \U1|shift_rtl_0|auto_generated|cntr1|cmpr6|aneb_result_wire[0]~0_combout\ $end
$var wire 1 %" \U1|shift_rtl_0|auto_generated|cntr1|counter_comb_bita0~combout\ $end
$var wire 1 &" \U1|shift_rtl_0|auto_generated|cntr1|counter_reg_bit[0]~0_combout\ $end
$var wire 1 '" \U0|pul~_wirecell_combout\ $end
$var wire 1 (" \U1|shift_rtl_0|auto_generated|altsyncram2|ram_block5a0~portbdataout\ $end
$var wire 1 )" \SW~0_combout\ $end
$var wire 1 *" \SW~q\ $end
$var wire 1 +" \U1|shift_rtl_0|auto_generated|altsyncram2|ram_block5a1\ $end
$var wire 1 ," \D~0_combout\ $end
$var wire 1 -" \D~q\ $end
$var wire 1 ." \U0|cnt_Toff\ [11] $end
$var wire 1 /" \U0|cnt_Toff\ [10] $end
$var wire 1 0" \U0|cnt_Toff\ [9] $end
$var wire 1 1" \U0|cnt_Toff\ [8] $end
$var wire 1 2" \U0|cnt_Toff\ [7] $end
$var wire 1 3" \U0|cnt_Toff\ [6] $end
$var wire 1 4" \U0|cnt_Toff\ [5] $end
$var wire 1 5" \U0|cnt_Toff\ [4] $end
$var wire 1 6" \U0|cnt_Toff\ [3] $end
$var wire 1 7" \U0|cnt_Toff\ [2] $end
$var wire 1 8" \U0|cnt_Toff\ [1] $end
$var wire 1 9" \U0|cnt_Toff\ [0] $end
$var wire 1 :" \U1|shift_rtl_0|auto_generated|cntr3|counter_reg_bit\ [6] $end
$var wire 1 ;" \U1|shift_rtl_0|auto_generated|cntr3|counter_reg_bit\ [5] $end
$var wire 1 <" \U1|shift_rtl_0|auto_generated|cntr3|counter_reg_bit\ [4] $end
$var wire 1 =" \U1|shift_rtl_0|auto_generated|cntr3|counter_reg_bit\ [3] $end
$var wire 1 >" \U1|shift_rtl_0|auto_generated|cntr3|counter_reg_bit\ [2] $end
$var wire 1 ?" \U1|shift_rtl_0|auto_generated|cntr3|counter_reg_bit\ [1] $end
$var wire 1 @" \U1|shift_rtl_0|auto_generated|cntr3|counter_reg_bit\ [0] $end
$var wire 1 A" \U1|shift_rtl_0|auto_generated|cntr1|counter_reg_bit\ [6] $end
$var wire 1 B" \U1|shift_rtl_0|auto_generated|cntr1|counter_reg_bit\ [5] $end
$var wire 1 C" \U1|shift_rtl_0|auto_generated|cntr1|counter_reg_bit\ [4] $end
$var wire 1 D" \U1|shift_rtl_0|auto_generated|cntr1|counter_reg_bit\ [3] $end
$var wire 1 E" \U1|shift_rtl_0|auto_generated|cntr1|counter_reg_bit\ [2] $end
$var wire 1 F" \U1|shift_rtl_0|auto_generated|cntr1|counter_reg_bit\ [1] $end
$var wire 1 G" \U1|shift_rtl_0|auto_generated|cntr1|counter_reg_bit\ [0] $end
$var wire 1 H" \ALT_INV_rst~inputclkctrl_outclk\ $end
$var wire 1 I" \U1|shift_rtl_0|auto_generated|ALT_INV_dffe4~q\ $end
$var wire 1 J" \U1|shift_rtl_0|auto_generated|cntr3|ALT_INV_counter_comb_bita6~0_combout\ $end
$upscope $end
$upscope $end
$enddefinitions $end
#0
$dumpvars
0!
0"
0#
x$
0%
1&
x'
1(
1)
1*
1+
1,
1-
0.
x/
00
01
02!
03!
04!
05!
16!
x7!
x8!
19!
1:!
1;!
0<!
0=!
0>!
1?!
0@!
0A!
0B!
1C!
0D!
0E!
0F!
0G!
0H!
1I!
0J!
0K!
1L!
0M!
1N!
0O!
0P!
0Q!
1R!
0S!
0T!
0U!
0V!
0W!
0X!
0Y!
0Z!
0[!
0\!
0]!
1^!
0_!
0`!
0a!
0b!
1c!
0d!
0e!
0f!
0g!
0h!
0i!
0j!
0k!
0l!
0m!
0n!
0o!
1p!
0q!
1r!
0s!
0t!
0u!
0v!
0w!
1x!
0y!
0z!
0{!
0|!
0}!
0~!
0!"
0""
0#"
0$"
1%"
1&"
1'"
0("
0)"
0*"
0+"
0,"
0-"
xH"
1I"
1J"
0d
0e
0f
0g
0h
0i
0j
0k
0l
0m
0n
0o
0p
0q
0r
0s
0t
0u
0v
0w
0x
0y
0z
0{
0|
0}
0~
0!!
0"!
0#!
0$!
0%!
0&!
0'!
0(!
0)!
0."
0/"
00"
01"
02"
03"
04"
05"
06"
07"
08"
09"
0:"
0;"
0<"
0="
0>"
0?"
0@"
0A"
0B"
0C"
0D"
0E"
0F"
0G"
1*!
1+!
1,!
0-!
1.!
1/!
10!
x1!
02
03
04
05
06
07
08
09
0:
0;
0<
0=
0>
0?
0@
0A
0B
0C
0D
0E
0F
0G
0H
0I
0J
0K
0L
0M
0N
0O
0P
0Q
0R
0S
1T
0U
0V
0W
0X
0Y
0Z
0[
0\
0]
0^
0_
0`
0a
0b
0c
$end
#10000
1!
1.
14!
1-!
15!
1@"
1?"
19"
1G"
1c
1\
0%"
1m!
1!"
0I!
1J!
0:!
0;!
06!
09!
1:!
1;!
1<!
1=!
1K!
1n!
0&"
1o!
1>!
0?!
0<!
0=!
0>!
1?!
1@!
1A!
1B!
0@!
0A!
0B!
#20000
0!
0.
04!
0-!
05!
#30000
1!
1.
14!
1-!
15!
0@"
09"
18"
1F"
0G"
0c
1b
0\
1[
1%"
0m!
0n!
0p!
0!"
0K!
0L!
1I!
0J!
16!
19!
0:!
0;!
1K!
1L!
1M!
1}!
0o!
1n!
1p!
1&"
0}!
1o!
1~!
1V!
0M!
1<!
1=!
1>!
0?!
0V!
0~!
1@!
1A!
1B!
#40000
0!
0.
04!
0-!
05!
#50000
1!
1.
14!
1-!
15!
1@"
0?"
1>"
1="
1<"
1;"
19"
1G"
1c
1\
0%"
1m!
0I!
1J!
0B!
0C!
0@!
0A!
0>!
1?!
0<!
0=!
1:!
1;!
06!
09!
0:!
1<!
1>!
1@!
1B!
1C!
1D!
0K!
0L!
0n!
0p!
0&"
1}!
0o!
1M!
0D!
1V!
1~!
#60000
0!
0.
04!
0-!
05!
#70000
1!
1.
14!
1-!
15!
0@"
09"
08"
17"
0F"
1E"
0G"
0c
0b
1a
0\
0[
1Z
1%"
0m!
0}!
1q!
1n!
1p!
0M!
1W!
1K!
1L!
1I!
0J!
16!
19!
1:!
0K!
1M!
0W!
1X!
0V!
1}!
0q!
1o!
1""
0~!
0n!
1&"
0o!
1#"
0""
1~!
0X!
1V!
0#"
#80000
0!
0.
04!
0-!
05!
#90000
1!
1.
14!
1-!
15!
1@"
1?"
19"
1G"
1c
1\
0%"
1m!
0I!
1J!
0:!
0;!
06!
09!
1:!
1;!
0<!
1K!
1n!
0&"
1o!
1<!
#100000
0!
0.
04!
0-!
05!
#110000
1!
1.
14!
1-!
15!
0@"
09"
18"
1F"
0G"
0c
1b
0\
1[
1%"
0m!
0n!
0p!
0K!
0L!
1I!
0J!
16!
19!
0:!
0;!
1K!
1L!
0M!
1W!
0}!
1q!
0o!
1n!
1p!
1&"
1}!
0q!
1o!
1""
0~!
1X!
0V!
1M!
0W!
0<!
0X!
1V!
1#"
0""
1~!
0#"
#120000
0!
0.
04!
0-!
05!
#130000
1!
1.
14!
1-!
15!
1@"
0?"
0>"
19"
1G"
1c
1\
0%"
1m!
0I!
1J!
1<!
1=!
1:!
1;!
06!
09!
0:!
0<!
0=!
0>!
0K!
0L!
0n!
0p!
0&"
0}!
1q!
0o!
0M!
1W!
1>!
1X!
0V!
1""
0~!
1#"
#140000
0!
0.
04!
0-!
05!
#150000
1!
1.
14!
1-!
15!
0@"
09"
08"
07"
16"
0F"
0E"
1D"
0G"
0c
0b
0a
1`
0\
0[
0Z
1Y
1%"
0m!
0""
0r!
1}!
0q!
1n!
1p!
0X!
0N!
1M!
0W!
1K!
1L!
1I!
0J!
16!
19!
1:!
0K!
0M!
1X!
1N!
1V!
1O!
0}!
1o!
1""
1r!
1~!
1s!
0#"
0n!
1&"
0o!
1t!
0s!
1#"
0~!
0O!
0V!
0t!
#160000
0!
0.
04!
0-!
05!
#170000
1!
1.
14!
1-!
15!
1@"
1?"
19"
1G"
1c
1\
0%"
1m!
1!"
0I!
1J!
0:!
0;!
06!
09!
1:!
1;!
1<!
1=!
1K!
1n!
0&"
1o!
0>!
0<!
0=!
1>!
#180000
0!
0.
04!
0-!
05!
#190000
1!
1.
14!
1-!
15!
0@"
09"
18"
1F"
0G"
0c
1b
0\
1[
1%"
0m!
0n!
0p!
0!"
0K!
0L!
1I!
0J!
16!
19!
0:!
0;!
1K!
1L!
1M!
1}!
0o!
1n!
1p!
1&"
0}!
1o!
1~!
1V!
0M!
1<!
1=!
0>!
0V!
0~!
#200000
0!
0.
04!
0-!
05!
#210000
1!
1.
14!
1-!
15!
1@"
0?"
1>"
0="
19"
1G"
1c
1\
0%"
1m!
0I!
1J!
1>!
0?!
0<!
0=!
1:!
1;!
06!
09!
0:!
1<!
0>!
1?!
0@!
0K!
0L!
0n!
0p!
0&"
1}!
0o!
1M!
1@!
1V!
1~!
#220000
0!
0.
04!
0-!
05!
#230000
1!
1.
14!
1-!
15!
0@"
09"
08"
17"
0F"
1E"
0G"
0c
0b
1a
0\
0[
1Z
1%"
0m!
0}!
1q!
1n!
1p!
0M!
1W!
1K!
1L!
1I!
0J!
16!
19!
1:!
0K!
1M!
0W!
0X!
0N!
0V!
1}!
0q!
1o!
0""
0r!
0~!
0n!
1&"
0o!
1s!
0#"
1""
1r!
1~!
1O!
1X!
1N!
1V!
0O!
0s!
1#"
1t!
0t!
#240000
0!
0.
04!
0-!
05!
#250000
1!
1.
14!
1-!
15!
1@"
1?"
19"
1G"
1c
1\
0%"
1m!
0I!
1J!
0:!
0;!
06!
09!
1:!
1;!
0<!
1K!
1n!
0&"
1o!
1<!
#260000
0!
0.
04!
0-!
05!
#270000
1!
1.
14!
1-!
15!
0@"
09"
18"
1F"
0G"
0c
1b
0\
1[
1%"
0m!
0n!
0p!
0K!
0L!
1I!
0J!
16!
19!
0:!
0;!
1K!
1L!
0M!
1W!
0}!
1q!
0o!
1n!
1p!
1&"
1}!
0q!
1o!
0""
0r!
0~!
0X!
0N!
0V!
1M!
0W!
0<!
1X!
1N!
1V!
1O!
1s!
0#"
1""
1r!
1~!
0s!
1#"
1t!
0O!
0t!
#280000
0!
0.
04!
0-!
05!
#290000
1!
1.
14!
1-!
15!
1@"
0?"
0>"
19"
1G"
1c
1\
0%"
1m!
0I!
1J!
1<!
1=!
1:!
1;!
06!
09!
0:!
0<!
0=!
1>!
0?!
0K!
0L!
0n!
0p!
0&"
0}!
1q!
0o!
0M!
1W!
0@!
0>!
1?!
1@!
0X!
0N!
0V!
0""
0r!
0~!
1s!
0#"
1O!
1t!
#300000
0!
0.
04!
0-!
05!
#310000
1!
1.
14!
1-!
15!
0@"
09"
08"
15"
07"
06"
0F"
1C"
0E"
0D"
0G"
0c
0b
0a
0`
1_
0\
0[
0Z
0Y
1X
1%"
0m!
1""
1r!
1}!
0q!
0s!
1u!
1n!
1p!
1X!
1N!
1M!
0W!
0O!
1P!
1K!
1L!
1I!
0J!
16!
19!
1:!
0K!
0M!
1Q!
0X!
1V!
1O!
0P!
0}!
1o!
1v!
0t!
0""
1~!
1s!
0u!
1#"
0n!
1&"
0o!
0v!
1t!
0#"
1w!
0~!
0Q!
0V!
0w!
#320000
0!
0.
04!
0-!
05!
#330000
1!
1.
14!
1-!
15!
1@"
1?"
19"
1G"
1c
1\
0%"
1m!
1!"
0I!
1J!
0:!
0;!
06!
09!
1:!
1;!
1<!
1=!
1K!
1n!
0&"
1o!
1>!
0?!
0<!
0=!
0>!
1?!
0@!
1@!
#340000
0!
0.
04!
0-!
05!
